<?xml version="1.0" encoding="utf-8"?>
<!-- Generator: Adobe Illustrator 23.1.1, SVG Export Plug-In . SVG Version: 6.00 Build 0)  -->
<svg version="1.1" id="Layer_1" xmlns="http://www.w3.org/2000/svg" xmlns:xlink="http://www.w3.org/1999/xlink" x="0px" y="0px"
	 viewBox="0 0 369.2 69.5" style="enable-background:new 0 0 369.2 69.5;" xml:space="preserve">
<style type="text/css">
	.st0{fill:#F48120;}
	.st1{fill:#EE4036;}
	.st2{fill:none;stroke:#F48120;stroke-width:1.5;stroke-miterlimit:10;}
	.st3{fill:#FFFFFF;}
	.st4{fill:url(#SVGID_1_);}
	.st5{fill:url(#SVGID_2_);}
	.st6{fill:none;stroke:#F48120;stroke-width:0.9215;stroke-miterlimit:10;}
	.st7{fill:#46196F;}
</style>
<g>
	<g>
		<g>
			<g>
				<g>
					<g>
						<path class="st3" d="M99.6,50.8c-11.5,0-13.8-5.3-14.3-7.6c-0.2-0.8,0-1.6,0.6-2.1c0.7-0.7,1.8-0.9,2.7-0.7
							c0.5,0.2,1.3,0.6,1.5,1.9c0.6,2.5,5.2,3.9,9.5,3.9c1.4,0,3.8-0.3,5.8-1.2c1.5-0.7,3.3-1.9,3.3-4c0-3.4-4-3.7-8.7-4.1l-0.8-0.1
							c-6.4-0.6-13.6-1.3-13.6-8.9c0-7,8.1-9.6,13.5-9.6c7.4,0,11.9,2.1,13.6,6.4l0,0c0.5,1.6-0.5,2.7-1.6,3.1
							c-1.2,0.4-2.6,0.1-3.1-1.3c-1.3-3.5-7-3.5-8.9-3.5c-1.9,0-4,0.4-5.6,1.2c-1.3,0.6-2.9,1.8-2.9,3.8c0,3.1,3,3.5,7.8,3.8
							c0.4,0,0.8,0.1,1.2,0.1l0.1,0c6.5,0.6,13.9,1.3,13.9,9.1c0,3.5-1.7,6.2-5.2,7.9C105.1,50.6,101.2,50.8,99.6,50.8z"/>
					</g>
				</g>
			</g>
		</g>
		<g>
			<g>
				<g>
					<g>
						<path class="st3" d="M121,61.3c-1.3,0-2.5-0.8-2.5-2.4V22.9h-1.8c-1.3,0-2.3-1-2.3-2.3c0-1.3,1-2.3,2.3-2.3h4.4
							c1.2,0,2.2,1,2.3,2.2l0,0c0.1,0.2,0.1,0.5,0.1,0.7V23c2.4-3.3,6.4-4.6,9.6-4.6c2,0,4.1,0.4,5.9,1.2l1,0.4
							c5.8,2.9,9.1,8.6,8.9,15.6C148.6,44.7,142.1,51,133,51c-4,0-7.6-1.6-9.5-4.1v12C123.5,60.5,122.3,61.3,121,61.3z M133.4,23.2
							c-5.8,0-9.8,3.8-9.8,9.1v4.8c0,5.1,3.8,8.8,9.4,9c4.5,0,8.4-2.5,10.1-6.3c0.5-1.3,0.8-2.9,0.9-4.4c0.1-4.2-1.4-7.6-4.4-10.1
							C137.8,24.2,135.7,23.4,133.4,23.2z"/>
					</g>
				</g>
			</g>
		</g>
		<g>
			<g>
				<g>
					<g>
						<path class="st3" d="M168.3,50.7l-0.2,0c-5.1,0-9.8-2.1-12.5-5.5c-3.5-4.6-4.5-10.8-2.6-16.3c1.7-5,5.4-8.5,10.4-9.9
							c1.4-0.4,2.9-0.6,4.5-0.6c1.6,0,3.2,0.2,4.7,0.6l0.2,0c7,1.9,11.2,7.7,11.4,15.4l0,0c0,0.6,0,1.5-0.6,2.2
							c-0.6,0.6-1.5,0.9-2.6,0.9h-16.3c-1.2,0-2.2-1-2.2-2.2c0-1.2,1-2.2,2.2-2.2l14.7,0c-0.5-4.6-3.2-8.1-7.3-9.5
							c-0.3-0.1-0.5-0.2-0.8-0.2c-0.2-0.1-0.7-0.2-0.9-0.2c-1.8-0.3-3.7-0.2-5.4,0.3c-4.5,1.2-7.5,5-7.9,10c0,0-0.1,0.9,0,1.7
							c0,0.8,0.2,1.9,0.2,2c0.8,5.2,5.3,8.8,10.8,8.8c2.1,0,5.2-0.4,7.9-2.5c1.3-1.1,2.8-0.9,3.6,0c0.8,0.8,1,2.1-0.3,3.4
							C176.6,49.3,172.6,50.7,168.3,50.7z"/>
					</g>
				</g>
			</g>
		</g>
		<g>
			<g>
				<g>
					<g>
						<path class="st3" d="M186.3,50.9c-0.2,0-0.3,0-0.5-0.1c-0.9-0.2-1.6-0.8-1.8-1.7c-0.3-0.9,0-1.8,0.7-2.5L195,34.5l-10.2-12.2
							c-0.9-1.2-0.8-2.5,0.2-3.3c1-0.8,2.6-0.9,3.6,0.3l9.7,12l10.5-12c0.5-0.7,1.3-1,2.1-0.9c1,0.1,1.8,0.7,2.2,1.6
							c0.3,0.7,0.2,1.4-0.3,2.1l0,0l-11.2,12.4L213,46.9c1,1.2,0.7,2.6-0.2,3.3c-0.9,0.8-2.5,1-3.6-0.2l-10.8-12.4l-10.1,12.3
							C187.7,50.5,187,50.9,186.3,50.9z"/>
					</g>
				</g>
			</g>
		</g>
		<g>
			<g>
				<g>
					<g>
						<path class="st3" d="M282.7,50.5c-1.5,0-2.5-0.9-2.5-2.4V32c-0.1-4.9-4-8.7-9.1-8.7c-6.4,0-11.1,4.8-11.1,11.4v13.3
							c0,1.5-1,2.4-2.5,2.4c-1.5,0-2.5-0.9-2.5-2.4V33c0-3.6-1.5-6.7-4.1-8.3c-1.5-0.9-3.2-1.3-5.1-1.3c-6.9,0-11,5.6-11,11.1v13.6
							c0,1.5-1.2,2.3-2.5,2.3c-1.2,0-2.5-0.8-2.5-2.3l0-8.7c0-0.1,0-0.3,0-0.4V23h-1.3c-1.2,0-2.2-1-2.2-2.2c0-1.2,1-2.2,2.2-2.2
							h4.1c0.6,0,1.1,0.2,1.5,0.6c0.4,0.4,0.6,1,0.6,1.5l0,1.3c2.6-2.1,6.3-3.4,11-3.6c5.5-0.3,10.4,2.7,12.3,7.5
							c2.2-4.7,7-7.5,12.8-7.5c6.9,0,14.3,4.6,14.3,13.2v16.2C285.2,49.5,284.2,50.5,282.7,50.5z"/>
					</g>
				</g>
			</g>
		</g>
		<g>
			<g>
				<g>
					<g>
						<path class="st3" d="M306.2,50.6c-5,0-9.4-2-12.3-5.6c-2.7-3.2-3.9-7.1-3.8-11.8c0.7-7.3,4.9-12.7,11.4-14.5
							c1.3-0.4,2.8-0.6,4.7-0.6c1.7,0,3.1,0.2,4.6,0.6c6.5,1.9,10.9,7.4,11.5,14.5c0.2,4.6-1,8.6-3.7,11.8
							C315.6,48.7,311.2,50.6,306.2,50.6z M306.1,22.9c-1,0-2.1,0.1-3.1,0.4c-4.8,1.2-7.9,5.7-7.9,11.2c0,2.8,0.9,5.6,2.6,7.5
							c2,2.4,5.2,3.9,8.5,3.9c3.1,0,6.4-1.5,8.5-3.9c1.6-1.9,2.6-4.8,2.6-7.4c0-5.7-3.1-10.1-7.9-11.4
							C308.3,23,307.2,22.9,306.1,22.9z"/>
					</g>
				</g>
			</g>
		</g>
		<g>
			<g>
				<g>
					<g>
						<path class="st3" d="M324.5,61.4c-1,0-1.8-0.5-2.2-1.4c-0.4-1-0.2-2.4,1.3-3.2c2.9-1.7,3.5-3.7,3.5-6.5V23h-1.3
							c-1.2,0-2.2-1-2.2-2.2c0-1.2,1-2.2,2.2-2.2h4.1c1.2,0,2.2,1,2.2,2.1l0,27.2c0.1,4.7,0.1,9.6-6.5,13.1l-0.1,0
							C325.2,61.3,324.8,61.4,324.5,61.4z"/>
					</g>
				</g>
			</g>
		</g>
		<g>
			<g>
				<g>
					<g>
						<path class="st3" d="M353.1,50.6c-5,0-9.4-2-12.3-5.6c-2.7-3.2-3.9-7.1-3.8-11.8c0.7-7.3,4.9-12.7,11.4-14.5
							c1.3-0.4,2.8-0.6,4.7-0.6c1.7,0,3.1,0.2,4.6,0.6c6.5,1.9,10.9,7.4,11.5,14.5c0.2,4.6-1,8.6-3.7,11.8
							C362.5,48.7,358.1,50.6,353.1,50.6z M353.1,22.9c-1,0-2.1,0.1-3.1,0.4c-4.8,1.2-7.9,5.7-7.9,11.2c0,2.8,0.9,5.6,2.6,7.5
							c2,2.4,5.2,3.9,8.5,3.9c3.1,0,6.4-1.5,8.5-3.9c1.6-1.9,2.6-4.8,2.6-7.4c0-5.7-3.1-10.1-7.9-11.4
							C355.7,23.1,354.4,22.9,353.1,22.9z"/>
					</g>
				</g>
			</g>
		</g>
	</g>
	<g>
		
			<linearGradient id="SVGID_1_" gradientUnits="userSpaceOnUse" x1="-755.8271" y1="418.6953" x2="-722.1985" y2="418.6953" gradientTransform="matrix(0.9514 -0.308 0.308 0.9514 592.3935 -590.9441)">
			<stop  offset="0" style="stop-color:#F48120"/>
			<stop  offset="0.5553" style="stop-color:#F16522"/>
			<stop  offset="0.9872" style="stop-color:#7B2E00"/>
		</linearGradient>
		<path class="st4" d="M36.5,37.8c-0.1-0.1-10-6.2-15.5-9.1c-3.3-1.7-6.1-2.2-8.5-2c-0.3,0-1.3,0.2-2.2,0.4
			c-3.4,0.8-12.4,3.3-9.8,7.3c1.1,1.7,2.7,2.1,4.7-0.5c0.2-0.2,0.7-0.9,0.9-1.1c1.5-1.6,2.7-2.7,4.6-3.3c2.4-0.7,5.4-0.6,9.2,1.4
			c5.4,2.8,15.3,8.9,15.4,9c0.3,0.2,0.6,0.2,0.9,0.1c0.3-0.1,0.6-0.3,0.7-0.5C37.3,38.9,37.1,38.1,36.5,37.8z"/>
		<path class="st0" d="M47.8,51.1c0,0-1,5.6-11.6,8.8c-3.7,1.2-14.2,4.6-19.6-2.7c-1.8-2.6-4.3-7-0.4-15.2c1.8-3.3,4.4-10,12.8-8.3
			c6,1.6,11.9,4.8,17.7,11.4C48.9,48,47.8,51.1,47.8,51.1z"/>
		<path class="st0" d="M50.9,50.7c0,0-3,1.3-3.4,7.6c-0.2,2.2-0.8,8.5,4,10.6c1.7,0.7,4.5,1.5,8.5-1.7c1.6-1.4,5-3.7,3-8.2
			c-1.6-3.1-4.2-6-8.6-8.4C52.5,49.7,50.9,50.7,50.9,50.7z"/>
		
			<linearGradient id="SVGID_2_" gradientUnits="userSpaceOnUse" x1="-93.8848" y1="-48.5928" x2="-60.2548" y2="-48.5928" gradientTransform="matrix(-2.740000e-02 0.9996 0.9996 2.740000e-02 78.2038 95.3705)">
			<stop  offset="0" style="stop-color:#EE4036"/>
			<stop  offset="0.5553" style="stop-color:#EC1B34"/>
			<stop  offset="0.9872" style="stop-color:#6C2352"/>
		</linearGradient>
		<path class="st5" d="M39.5,33.7c-0.1-0.1-8.8-7.8-13.1-12.3c-2.6-2.7-3.8-5.3-4.3-7.6c-0.1-0.3-0.2-1.3-0.3-2.2
			C21.6,8.1,21.5-1.3,26,0.1c1.9,0.6,2.8,2,0.9,4.7c-0.2,0.2-0.7,1-0.8,1.1c-1.1,1.9-1.8,3.4-1.9,5.3c0,2.5,1,5.4,3.9,8.5
			c4.3,4.4,12.9,12.1,13,12.2c0.3,0.2,0.4,0.5,0.4,0.9c0,0.3-0.1,0.6-0.3,0.9C40.8,34.2,40,34.2,39.5,33.7z"/>
		<path class="st1" d="M55.5,40.8c0,0,5.1-2.5,5.2-13.6c0.1-3.8,0.4-14.9-8.1-18.1c-3-1-8-2.1-14.7,3.9c-2.6,2.6-8.4,7-4.4,14.6
			c3.2,5.3,8,10.1,15.9,13.8C52.8,42.8,55.5,40.8,55.5,40.8z"/>
		<path class="st1" d="M55.8,43.9c0,0,0.5-3.2,6.6-5.1c2.1-0.7,8-2.7,11.2,1.4c1,1.5,2.5,4,0.3,8.6c-1,1.9-2.4,5.8-7.2,4.8
			c-3.4-0.8-6.8-2.7-10.2-6.4C55.2,45.7,55.8,43.9,55.8,43.9z"/>
	</g>
</g>
</svg>
