<?xml version="1.0" encoding="utf-8"?>
<!-- Generator: Adobe Illustrator 23.1.1, SVG Export Plug-In . SVG Version: 6.00 Build 0)  -->
<svg version="1.1" id="Layer_1" xmlns="http://www.w3.org/2000/svg" xmlns:xlink="http://www.w3.org/1999/xlink" x="0px" y="0px"
	 viewBox="0 0 68.1 47.8" style="enable-background:new 0 0 68.1 47.8;" xml:space="preserve">
<style type="text/css">
	.st0{fill:#EE4036;}
</style>
<g>
	<g>
		<path class="st0" d="M0,29.3c0.4-1.3,0.7-2.6,1.1-3.9C2.7,19.6,4.3,13.8,6,8c0.3-1.1,0.8-2.1,1.1-3.1c0.6-1.8,1.9-3,3.7-3.7
			c1.9-0.8,5.6-1.3,7.4-1c-0.1,0.6-0.1,1.3-0.2,2c-0.3,0-0.5,0-0.8,0c-1.6,0.2-3.2,0.2-4.7,0.6c-1.8,0.4-3,1.5-3.6,3.3
			c-1.2,3.7-2.3,7.4-3.5,11.2C5,18.7,4.6,20.3,4.2,22c3.1-3.1,6.7-4.9,11.1-5c4.4-0.1,8.1,1.5,11.2,4.6c5.1,5.2,6,12.8,2.1,18.9
			c-4,6.2-11.1,8.4-17,6.7c0.2-0.6,0.3-1.3,0.5-1.9c8,1.8,13.8-2.8,15.8-7.7c2.1-5.2,1-11.5-3.7-15.5c-4.4-3.7-10.9-4.1-16-0.9
			c-4,2.5-7.8,8.8-4.9,16.3c-0.6,0.3-1.2,0.5-2,0.8c-0.3-1.3-0.8-2.5-0.9-3.7c-0.1-1.5,0-3.1,0-4.6c0-0.2,0.2-0.6-0.3-0.5
			C0,29.5,0,29.4,0,29.3z"/>
		<path class="st0" d="M68.1,34.2c-0.1,0.6-0.3,1.2-0.4,1.7C66,43.3,59,48.3,51.4,47.7c-0.9-0.1-1.7-0.3-2.6-0.4
			c0.2-0.7,0.4-1.3,0.5-2c3.8,0.8,7.4,0.4,10.7-1.7c2.3-1.5,4-3.6,5.1-6.2c2.2-5.4,0.6-11.7-3.8-15.3c-4.4-3.7-10.9-4-15.9-0.9
			c-3.9,2.4-7.8,8.7-4.9,16.4c-0.6,0.3-1.2,0.5-1.7,0.8c-2-3.9-2.2-11.2,3.1-16.7c5.1-5.2,15.1-7.1,22.2,0.3c-0.5-1.9-1-3.6-1.5-5.4
			c-1-3.3-2.1-6.6-3-10c-0.8-3-3-4-5.8-4.3c-1.2-0.1-2.3-0.1-3.6-0.2c-0.1-0.6-0.1-1.2-0.2-2c1.2,0.1,2.3,0,3.4,0.2
			c1.5,0.3,3,0.6,4.3,1.1c1.6,0.6,2.8,1.9,3.3,3.6c1.2,3.8,2.5,7.6,3.6,11.5c1.2,4,2.2,8.1,3.2,12.2c0.1,0.3,0.2,0.5,0.3,0.7
			C68.1,30.9,68.1,32.6,68.1,34.2z"/>
		<path class="st0" d="M14.9,41.4c0,0.7,0,1.3,0,1.9C10.1,43.7,4.5,39,4.6,33.2c0.6,0,1.3,0,2,0C6.6,35.4,7.4,37.4,9,39
			C10.6,40.6,12.6,41.3,14.9,41.4z"/>
		<path class="st0" d="M43.8,33.2c0.5,5,3.2,7.8,8.3,8.3c0,0.6,0,1.2,0,1.9c-4.6,0.4-10.3-4.2-10.3-10.2
			C42.5,33.2,43.1,33.2,43.8,33.2z"/>
		<path class="st0" d="M38.6,24.9c-0.2,0.7-0.3,1.3-0.4,2c-2.6-0.6-5.2-0.5-7.9,0c-0.2-0.7-0.3-1.3-0.5-2
			C32.7,24.2,35.6,24.3,38.6,24.9z"/>
	</g>
</g>
</svg>
