<svg width="130" height="170" viewBox="0 0 130 170" fill="none" xmlns="http://www.w3.org/2000/svg">
<rect width="130" height="170" fill="#C4C4C4"/>
<path d="M16.96 152.08C16.2733 152.08 15.6733 151.933 15.16 151.64C14.6533 151.34 14.2633 150.917 13.99 150.37C13.7167 149.823 13.58 149.177 13.58 148.43C13.58 147.69 13.7167 147.047 13.99 146.5C14.2633 145.953 14.6533 145.533 15.16 145.24C15.6733 144.947 16.2733 144.8 16.96 144.8C17.4467 144.8 17.8967 144.877 18.31 145.03C18.73 145.177 19.0833 145.393 19.37 145.68L19.01 146.44C18.6767 146.167 18.3467 145.97 18.02 145.85C17.7 145.723 17.35 145.66 16.97 145.66C16.23 145.66 15.6567 145.9 15.25 146.38C14.85 146.86 14.65 147.543 14.65 148.43C14.65 149.323 14.85 150.013 15.25 150.5C15.6567 150.98 16.23 151.22 16.97 151.22C17.35 151.22 17.7 151.16 18.02 151.04C18.3467 150.913 18.6767 150.713 19.01 150.44L19.37 151.2C19.0833 151.487 18.73 151.707 18.31 151.86C17.8967 152.007 17.4467 152.08 16.96 152.08ZM21.0759 144.64H22.0759V152H21.0759V144.64ZM24.0564 146.96H25.0564V152H24.0564V146.96ZM25.1364 144.76V145.82H23.9664V144.76H25.1364ZM29.2269 152.07C28.7202 152.07 28.2769 151.963 27.8969 151.75C27.5235 151.537 27.2369 151.237 27.0369 150.85C26.8369 150.457 26.7369 150 26.7369 149.48C26.7369 148.96 26.8402 148.5 27.0469 148.1C27.2602 147.7 27.5569 147.39 27.9369 147.17C28.3169 146.95 28.7602 146.84 29.2669 146.84C29.6202 146.84 29.9602 146.9 30.2869 147.02C30.6135 147.133 30.8769 147.29 31.0769 147.49L30.7669 148.22C30.2935 147.847 29.8169 147.66 29.3369 147.66C28.8502 147.66 28.4702 147.82 28.1969 148.14C27.9235 148.453 27.7869 148.897 27.7869 149.47C27.7869 150.043 27.9235 150.487 28.1969 150.8C28.4702 151.107 28.8502 151.26 29.3369 151.26C29.8302 151.26 30.3069 151.073 30.7669 150.7L31.0769 151.43C30.8635 151.63 30.5902 151.787 30.2569 151.9C29.9302 152.013 29.5869 152.07 29.2269 152.07ZM35.9371 152L33.5271 149.62V152H32.5271V144.64H33.5271V149.24L35.7671 146.97H37.0171L34.6071 149.39L37.2271 152H35.9371ZM44.1856 146.84C45.3923 146.84 45.9956 147.513 45.9956 148.86V152H44.9856V148.92C44.9856 148.48 44.899 148.16 44.7256 147.96C44.559 147.76 44.289 147.66 43.9156 147.66C43.489 147.66 43.1456 147.793 42.8856 148.06C42.6323 148.327 42.5056 148.683 42.5056 149.13V152H41.5056V144.64H42.5056V147.74C42.6723 147.447 42.9023 147.223 43.1956 147.07C43.489 146.917 43.819 146.84 44.1856 146.84ZM52.2334 149.5H48.6334C48.6667 150.68 49.2034 151.27 50.2434 151.27C50.8234 151.27 51.3534 151.08 51.8334 150.7L52.1434 151.42C51.9167 151.62 51.6267 151.78 51.2734 151.9C50.9267 152.013 50.5767 152.07 50.2234 152.07C49.4167 152.07 48.7834 151.84 48.3234 151.38C47.8634 150.913 47.6334 150.277 47.6334 149.47C47.6334 148.957 47.7334 148.5 47.9334 148.1C48.14 147.7 48.4267 147.39 48.7934 147.17C49.16 146.95 49.5767 146.84 50.0434 146.84C50.7234 146.84 51.2567 147.06 51.6434 147.5C52.0367 147.94 52.2334 148.55 52.2334 149.33V149.5ZM50.0634 147.59C49.6834 147.59 49.3734 147.703 49.1334 147.93C48.8934 148.157 48.74 148.48 48.6734 148.9H51.3434C51.3034 148.473 51.1734 148.15 50.9534 147.93C50.7334 147.703 50.4367 147.59 50.0634 147.59ZM56.4023 146.84C56.5557 146.84 56.7157 146.863 56.8823 146.91L56.8623 147.83C56.6823 147.763 56.4857 147.73 56.2723 147.73C55.8123 147.73 55.4657 147.87 55.2323 148.15C55.0057 148.423 54.8923 148.77 54.8923 149.19V152H53.8923V148.38C53.8923 147.853 53.8657 147.38 53.8123 146.96H54.7523L54.8423 147.87C54.9757 147.537 55.1823 147.283 55.4623 147.11C55.7423 146.93 56.0557 146.84 56.4023 146.84ZM62.3545 149.5H58.7545C58.7878 150.68 59.3245 151.27 60.3645 151.27C60.9445 151.27 61.4745 151.08 61.9545 150.7L62.2645 151.42C62.0378 151.62 61.7478 151.78 61.3945 151.9C61.0478 152.013 60.6978 152.07 60.3445 152.07C59.5378 152.07 58.9045 151.84 58.4445 151.38C57.9845 150.913 57.7545 150.277 57.7545 149.47C57.7545 148.957 57.8545 148.5 58.0545 148.1C58.2611 147.7 58.5478 147.39 58.9145 147.17C59.2811 146.95 59.6978 146.84 60.1645 146.84C60.8445 146.84 61.3778 147.06 61.7645 147.5C62.1578 147.94 62.3545 148.55 62.3545 149.33V149.5ZM60.1845 147.59C59.8045 147.59 59.4945 147.703 59.2545 147.93C59.0145 148.157 58.8611 148.48 58.7945 148.9H61.4645C61.4245 148.473 61.2945 148.15 61.0745 147.93C60.8545 147.703 60.5578 147.59 60.1845 147.59ZM68.4895 147.74V150.27C68.4895 150.617 68.5628 150.863 68.7095 151.01C68.8628 151.15 69.0728 151.22 69.3395 151.22C69.5128 151.22 69.6895 151.193 69.8695 151.14V151.96C69.6495 152.033 69.3995 152.07 69.1195 152.07C68.5995 152.07 68.1961 151.923 67.9095 151.63C67.6228 151.337 67.4795 150.91 67.4795 150.35V147.74H66.4995V146.96H67.4795V145.7L68.4895 145.35V146.96H69.8795V147.74H68.4895ZM73.4823 152.07C72.9889 152.07 72.5556 151.963 72.1823 151.75C71.8089 151.537 71.5189 151.233 71.3123 150.84C71.1123 150.447 71.0123 149.987 71.0123 149.46C71.0123 148.933 71.1123 148.473 71.3123 148.08C71.5189 147.68 71.8089 147.373 72.1823 147.16C72.5556 146.947 72.9889 146.84 73.4823 146.84C73.9689 146.84 74.3989 146.947 74.7723 147.16C75.1456 147.373 75.4323 147.68 75.6323 148.08C75.8389 148.473 75.9423 148.933 75.9423 149.46C75.9423 149.987 75.8389 150.447 75.6323 150.84C75.4323 151.233 75.1456 151.537 74.7723 151.75C74.3989 151.963 73.9689 152.07 73.4823 152.07ZM73.4723 151.27C73.9389 151.27 74.2956 151.117 74.5423 150.81C74.7889 150.503 74.9123 150.053 74.9123 149.46C74.9123 148.88 74.7856 148.433 74.5323 148.12C74.2856 147.807 73.9356 147.65 73.4823 147.65C73.0223 147.65 72.6656 147.807 72.4123 148.12C72.1589 148.433 72.0323 148.88 72.0323 149.46C72.0323 150.053 72.1556 150.503 72.4023 150.81C72.6556 151.117 73.0123 151.27 73.4723 151.27ZM83.7288 152.08C82.7822 152.08 82.0622 151.833 81.5688 151.34C81.0822 150.847 80.8388 150.123 80.8388 149.17V144.88H81.8488V149.24C81.8488 149.9 82.0055 150.4 82.3188 150.74C82.6388 151.073 83.1088 151.24 83.7288 151.24C84.3422 151.24 84.8055 151.07 85.1188 150.73C85.4388 150.39 85.5988 149.893 85.5988 149.24V144.88H86.6188V149.17C86.6188 150.123 86.3722 150.847 85.8788 151.34C85.3922 151.833 84.6755 152.08 83.7288 152.08ZM91.3123 146.84C91.7457 146.84 92.1323 146.95 92.4723 147.17C92.8123 147.39 93.0757 147.7 93.2623 148.1C93.4557 148.5 93.5523 148.96 93.5523 149.48C93.5523 150 93.459 150.457 93.2723 150.85C93.0857 151.237 92.8223 151.537 92.4823 151.75C92.1423 151.963 91.7523 152.07 91.3123 152.07C90.9257 152.07 90.5857 151.99 90.2923 151.83C90.0057 151.663 89.789 151.427 89.6423 151.12V154.16H88.6423V148.38C88.6423 147.853 88.6157 147.38 88.5623 146.96H89.5023L89.6023 147.89C89.7357 147.557 89.9523 147.3 90.2523 147.12C90.5523 146.933 90.9057 146.84 91.3123 146.84ZM91.0823 151.27C91.5357 151.27 91.889 151.113 92.1423 150.8C92.3957 150.487 92.5223 150.047 92.5223 149.48C92.5223 148.907 92.3957 148.46 92.1423 148.14C91.889 147.813 91.5357 147.65 91.0823 147.65C90.6157 147.65 90.259 147.807 90.0123 148.12C89.7657 148.433 89.6423 148.88 89.6423 149.46C89.6423 150.04 89.7657 150.487 90.0123 150.8C90.2657 151.113 90.6223 151.27 91.0823 151.27ZM95.2361 144.64H96.2361V152H95.2361V144.64ZM100.387 152.07C99.8932 152.07 99.4599 151.963 99.0866 151.75C98.7132 151.537 98.4232 151.233 98.2166 150.84C98.0166 150.447 97.9166 149.987 97.9166 149.46C97.9166 148.933 98.0166 148.473 98.2166 148.08C98.4232 147.68 98.7132 147.373 99.0866 147.16C99.4599 146.947 99.8932 146.84 100.387 146.84C100.873 146.84 101.303 146.947 101.677 147.16C102.05 147.373 102.337 147.68 102.537 148.08C102.743 148.473 102.847 148.933 102.847 149.46C102.847 149.987 102.743 150.447 102.537 150.84C102.337 151.233 102.05 151.537 101.677 151.75C101.303 151.963 100.873 152.07 100.387 152.07ZM100.377 151.27C100.843 151.27 101.2 151.117 101.447 150.81C101.693 150.503 101.817 150.053 101.817 149.46C101.817 148.88 101.69 148.433 101.437 148.12C101.19 147.807 100.84 147.65 100.387 147.65C99.9266 147.65 99.5699 147.807 99.3166 148.12C99.0632 148.433 98.9366 148.88 98.9366 149.46C98.9366 150.053 99.0599 150.503 99.3066 150.81C99.5599 151.117 99.9166 151.27 100.377 151.27ZM109.137 146.96V152H108.137V151.14C107.99 151.44 107.77 151.67 107.477 151.83C107.19 151.99 106.854 152.07 106.467 152.07C106.02 152.07 105.627 151.963 105.287 151.75C104.954 151.537 104.694 151.237 104.507 150.85C104.32 150.457 104.227 150 104.227 149.48C104.227 148.96 104.32 148.5 104.507 148.1C104.7 147.7 104.967 147.39 105.307 147.17C105.647 146.95 106.034 146.84 106.467 146.84C106.854 146.84 107.19 146.923 107.477 147.09C107.764 147.25 107.984 147.48 108.137 147.78V146.96H109.137ZM106.707 151.27C107.16 151.27 107.51 151.113 107.757 150.8C108.01 150.48 108.137 150.033 108.137 149.46C108.137 148.88 108.01 148.433 107.757 148.12C107.51 147.807 107.157 147.65 106.697 147.65C106.244 147.65 105.887 147.813 105.627 148.14C105.374 148.46 105.247 148.907 105.247 149.48C105.247 150.047 105.374 150.487 105.627 150.8C105.887 151.113 106.247 151.27 106.707 151.27ZM115.731 144.64V152H114.731V151.14C114.584 151.44 114.364 151.67 114.071 151.83C113.784 151.99 113.448 152.07 113.061 152.07C112.628 152.07 112.241 151.96 111.901 151.74C111.561 151.52 111.294 151.213 111.101 150.82C110.914 150.42 110.821 149.96 110.821 149.44C110.821 148.92 110.914 148.463 111.101 148.07C111.288 147.677 111.548 147.373 111.881 147.16C112.221 146.947 112.614 146.84 113.061 146.84C113.441 146.84 113.774 146.92 114.061 147.08C114.354 147.24 114.574 147.467 114.721 147.76V144.64H115.731ZM113.291 151.27C113.751 151.27 114.104 151.113 114.351 150.8C114.604 150.48 114.731 150.033 114.731 149.46C114.731 148.887 114.604 148.443 114.351 148.13C114.104 147.81 113.754 147.65 113.301 147.65C112.841 147.65 112.481 147.807 112.221 148.12C111.968 148.433 111.841 148.873 111.841 149.44C111.841 150.013 111.968 150.463 112.221 150.79C112.481 151.11 112.838 151.27 113.291 151.27Z" fill="black"/>
<rect x="63.7143" y="76" width="2.57143" height="18" fill="white"/>
<rect x="56" y="86.2858" width="2.57143" height="18" transform="rotate(-90 56 86.2858)" fill="white"/>
</svg>
